[
  {
    "id": 7,
    "fK_OrderProblem_Id": 1,
    "orderProblem": {
      "id": 1,
      "name": "OrderProblem 1",
      "fK_CreatedBy_Id": null,
      "fK_UpdatedBy_Id": null,
      "fK_DeletedBy_Id": null,
      "isDeleted": false,
      "createdDate": "0001-01-01T00:00:00",
      "updatedDate": "2017-12-18T03:26:05.7331992",
      "deletedDate": "0001-01-01T00:00:00"
    },
    "area": "Umm Al-Maradim Island",
    "governorate": "Asma Governorate",
    "fK_Dispatcher_Id": "7ef07300-a0f9-4963-b245-1cf370691844",
    "dispatcher": {
      "phoneNumber": "12345678",
      "id": "7ef07300-a0f9-4963-b245-1cf370691844",
      "phoneNumberConfirmed": false,
      "userName": "dispatcher",
      "email": "dispatcher@test.com",
      "emailConfirmed": false,
      "isAvailable": false,
      "password": null,
      "firstName": "dispatcher",
      "middleName": "dispatcher",
      "lastName": "dispatcher",
      "fK_CreatedBy_Id": null,
      "fK_UpdatedBy_Id": null,
      "fK_DeletedBy_Id": null,
      "isDeleted": false,
      "createdDate": "0001-01-01T00:00:00",
      "updatedDate": "0001-01-01T00:00:00",
      "deletedDate": "0001-01-01T00:00:00",
      "roleNames": []
    },
    "fK_CreatedBy_Id": null,
    "fK_UpdatedBy_Id": null,
    "fK_DeletedBy_Id": null,
    "isDeleted": false,
    "createdDate": "2017-12-18T03:28:23.1063816-08:00",
    "updatedDate": "0001-01-01T00:00:00",
    "deletedDate": "0001-01-01T00:00:00"
  },
  {
    "id": 7,
    "fK_OrderProblem_Id": 1,
    "orderProblem": {
      "id": 2,
      "name": "OrderProblem 2",
      "fK_CreatedBy_Id": null,
      "fK_UpdatedBy_Id": null,
      "fK_DeletedBy_Id": null,
      "isDeleted": false,
      "createdDate": "0001-01-01T00:00:00",
      "updatedDate": "2017-12-18T03:26:05.7331992",
      "deletedDate": "0001-01-01T00:00:00"
    },
    "area": "Umm Al-Maradim Island",
    "governorate": "Asma Governorate",
    "fK_Dispatcher_Id": "7ef07300-a0f9-4963-b245-1cf370691844",
    "dispatcher": {
      "phoneNumber": "12345678",
      "id": "7ef07300-a0f9-4963-b245-1cf370691844",
      "phoneNumberConfirmed": false,
      "userName": "dispatcher",
      "email": "dispatcher@test.com",
      "emailConfirmed": false,
      "isAvailable": false,
      "password": null,
      "firstName": "dispatcher",
      "middleName": "dispatcher",
      "lastName": "dispatcher",
      "fK_CreatedBy_Id": null,
      "fK_UpdatedBy_Id": null,
      "fK_DeletedBy_Id": null,
      "isDeleted": false,
      "createdDate": "0001-01-01T00:00:00",
      "updatedDate": "0001-01-01T00:00:00",
      "deletedDate": "0001-01-01T00:00:00",
      "roleNames": []
    },
    "fK_CreatedBy_Id": null,
    "fK_UpdatedBy_Id": null,
    "fK_DeletedBy_Id": null,
    "isDeleted": false,
    "createdDate": "2017-12-18T03:28:23.1063816-08:00",
    "updatedDate": "0001-01-01T00:00:00",
    "deletedDate": "0001-01-01T00:00:00"
  },
  {
    "id": 7,
    "fK_OrderProblem_Id": 1,
    "orderProblem": {
      "id": 3,
      "name": "OrderProblem 3",
      "fK_CreatedBy_Id": null,
      "fK_UpdatedBy_Id": null,
      "fK_DeletedBy_Id": null,
      "isDeleted": false,
      "createdDate": "0001-01-01T00:00:00",
      "updatedDate": "2017-12-18T03:26:05.7331992",
      "deletedDate": "0001-01-01T00:00:00"
    },
    "area": "Umm Al-Maradim Island",
    "governorate": "Asma Governorate",
    "fK_Dispatcher_Id": "7ef07300-a0f9-4963-b245-1cf370691844",
    "dispatcher": {
      "phoneNumber": "12345678",
      "id": "7ef07300-a0f9-4963-b245-1cf370691844",
      "phoneNumberConfirmed": false,
      "userName": "dispatcher",
      "email": "dispatcher@test.com",
      "emailConfirmed": false,
      "isAvailable": false,
      "password": null,
      "firstName": "dispatcher",
      "middleName": "dispatcher",
      "lastName": "dispatcher",
      "fK_CreatedBy_Id": null,
      "fK_UpdatedBy_Id": null,
      "fK_DeletedBy_Id": null,
      "isDeleted": false,
      "createdDate": "0001-01-01T00:00:00",
      "updatedDate": "0001-01-01T00:00:00",
      "deletedDate": "0001-01-01T00:00:00",
      "roleNames": []
    },
    "fK_CreatedBy_Id": null,
    "fK_UpdatedBy_Id": null,
    "fK_DeletedBy_Id": null,
    "isDeleted": false,
    "createdDate": "2017-12-18T03:28:23.1063816-08:00",
    "updatedDate": "0001-01-01T00:00:00",
    "deletedDate": "0001-01-01T00:00:00"
  },
  {
    "id": 7,
    "fK_OrderProblem_Id": 1,
    "orderProblem": {
      "id": 4,
      "name": "OrderProblem 4",
      "fK_CreatedBy_Id": null,
      "fK_UpdatedBy_Id": null,
      "fK_DeletedBy_Id": null,
      "isDeleted": false,
      "createdDate": "0001-01-01T00:00:00",
      "updatedDate": "2017-12-18T03:26:05.7331992",
      "deletedDate": "0001-01-01T00:00:00"
    },
    "area": "New Wafra",
    "governorate": "Ahmadi Governorate",
    "fK_Dispatcher_Id": "7ef07300-a0f9-4963-b245-1cf370691844",
    "dispatcher": {
      "phoneNumber": "12345678",
      "id": "7ef07300-a0f9-4963-b245-1cf370691844",
      "phoneNumberConfirmed": false,
      "userName": "dispatcher",
      "email": "dispatcher@test.com",
      "emailConfirmed": false,
      "isAvailable": false,
      "password": null,
      "firstName": "dispatcher",
      "middleName": "dispatcher",
      "lastName": "dispatcher",
      "fK_CreatedBy_Id": null,
      "fK_UpdatedBy_Id": null,
      "fK_DeletedBy_Id": null,
      "isDeleted": false,
      "createdDate": "0001-01-01T00:00:00",
      "updatedDate": "0001-01-01T00:00:00",
      "deletedDate": "0001-01-01T00:00:00",
      "roleNames": []
    },
    "fK_CreatedBy_Id": null,
    "fK_UpdatedBy_Id": null,
    "fK_DeletedBy_Id": null,
    "isDeleted": false,
    "createdDate": "2017-12-18T03:28:23.1063816-08:00",
    "updatedDate": "0001-01-01T00:00:00",
    "deletedDate": "0001-01-01T00:00:00"
  },
  {
    "id": 7,
    "fK_OrderProblem_Id": 1,
    "orderProblem": {
      "id": 5,
      "name": "OrderProblem 5",
      "fK_CreatedBy_Id": null,
      "fK_UpdatedBy_Id": null,
      "fK_DeletedBy_Id": null,
      "isDeleted": false,
      "createdDate": "0001-01-01T00:00:00",
      "updatedDate": "2017-12-18T03:26:05.7331992",
      "deletedDate": "0001-01-01T00:00:00"
    },
    "area": "New Wafra",
    "governorate": "Ahmadi Governorate",
    "fK_Dispatcher_Id": "7ef07300-a0f9-4963-b245-1cf370691844",
    "dispatcher": {
      "phoneNumber": "12345678",
      "id": "7ef07300-a0f9-4963-b245-1cf370691844",
      "phoneNumberConfirmed": false,
      "userName": "dispatcher",
      "email": "dispatcher@test.com",
      "emailConfirmed": false,
      "isAvailable": false,
      "password": null,
      "firstName": "dispatcher",
      "middleName": "dispatcher",
      "lastName": "dispatcher",
      "fK_CreatedBy_Id": null,
      "fK_UpdatedBy_Id": null,
      "fK_DeletedBy_Id": null,
      "isDeleted": false,
      "createdDate": "0001-01-01T00:00:00",
      "updatedDate": "0001-01-01T00:00:00",
      "deletedDate": "0001-01-01T00:00:00",
      "roleNames": []
    },
    "fK_CreatedBy_Id": null,
    "fK_UpdatedBy_Id": null,
    "fK_DeletedBy_Id": null,
    "isDeleted": false,
    "createdDate": "2017-12-18T03:28:23.1063816-08:00",
    "updatedDate": "0001-01-01T00:00:00",
    "deletedDate": "0001-01-01T00:00:00"
  },
  {
    "id": 7,
    "fK_OrderProblem_Id": 1,
    "orderProblem": {
      "id": 6,
      "name": "OrderProblem 6",
      "fK_CreatedBy_Id": null,
      "fK_UpdatedBy_Id": null,
      "fK_DeletedBy_Id": null,
      "isDeleted": false,
      "createdDate": "0001-01-01T00:00:00",
      "updatedDate": "2017-12-18T03:26:05.7331992",
      "deletedDate": "0001-01-01T00:00:00"
    },
    "area": "Mubarakyia",
    "governorate": "Hawalli Governorate",
    "fK_Dispatcher_Id": "7ef07300-a0f9-4963-b245-1cf370691844",
    "dispatcher": {
      "phoneNumber": "12345678",
      "id": "7ef07300-a0f9-4963-b245-1cf370691844",
      "phoneNumberConfirmed": false,
      "userName": "dispatcher",
      "email": "dispatcher@test.com",
      "emailConfirmed": false,
      "isAvailable": false,
      "password": null,
      "firstName": "dispatcher",
      "middleName": "dispatcher",
      "lastName": "dispatcher",
      "fK_CreatedBy_Id": null,
      "fK_UpdatedBy_Id": null,
      "fK_DeletedBy_Id": null,
      "isDeleted": false,
      "createdDate": "0001-01-01T00:00:00",
      "updatedDate": "0001-01-01T00:00:00",
      "deletedDate": "0001-01-01T00:00:00",
      "roleNames": []
    },
    "fK_CreatedBy_Id": null,
    "fK_UpdatedBy_Id": null,
    "fK_DeletedBy_Id": null,
    "isDeleted": false,
    "createdDate": "2017-12-18T03:28:23.1063816-08:00",
    "updatedDate": "0001-01-01T00:00:00",
    "deletedDate": "0001-01-01T00:00:00"
  },
  {
    "id": 7,
    "fK_OrderProblem_Id": 1,
    "orderProblem": {
      "id": 7,
      "name": "OrderProblem 7",
      "fK_CreatedBy_Id": null,
      "fK_UpdatedBy_Id": null,
      "fK_DeletedBy_Id": null,
      "isDeleted": false,
      "createdDate": "0001-01-01T00:00:00",
      "updatedDate": "2017-12-18T03:26:05.7331992",
      "deletedDate": "0001-01-01T00:00:00"
    },
    "area": "Mubarakyia",
    "governorate": "Hawalli Governorate",
    "fK_Dispatcher_Id": "7ef07300-a0f9-4963-b245-1cf370691844",
    "dispatcher": {
      "phoneNumber": "12345678",
      "id": "7ef07300-a0f9-4963-b245-1cf370691844",
      "phoneNumberConfirmed": false,
      "userName": "dispatcher",
      "email": "dispatcher@test.com",
      "emailConfirmed": false,
      "isAvailable": false,
      "password": null,
      "firstName": "dispatcher",
      "middleName": "dispatcher",
      "lastName": "dispatcher",
      "fK_CreatedBy_Id": null,
      "fK_UpdatedBy_Id": null,
      "fK_DeletedBy_Id": null,
      "isDeleted": false,
      "createdDate": "0001-01-01T00:00:00",
      "updatedDate": "0001-01-01T00:00:00",
      "deletedDate": "0001-01-01T00:00:00",
      "roleNames": []
    },
    "fK_CreatedBy_Id": null,
    "fK_UpdatedBy_Id": null,
    "fK_DeletedBy_Id": null,
    "isDeleted": false,
    "createdDate": "2017-12-18T03:28:23.1063816-08:00",
    "updatedDate": "0001-01-01T00:00:00",
    "deletedDate": "0001-01-01T00:00:00"
  }
]
